{
  "_links": {
    "first": {
      "href": "http://localhost/api/v1/resources?size=4&sort=vnfInstanceName,desc&page=1"
    },
    "prev": null,
    "self": {
      "href": "http://localhost/api/v1/resources?size=4&sort=vnfInstanceName,desc&page=1"
    },
    "next": {
      "href": "http://localhost/api/v1/resources?size=4&sort=vnfInstanceName,desc&page=2"
    },
    "last": {
      "href": "http://localhost/api/v1/resources?size=4&sort=vnfInstanceName,desc&page=5"
    }
  },
  "page": {
    "number": 1,
    "size": 4,
    "totalPages": 5,
    "totalElements": 18
  },
  "items": [
    {
      "instanceId": "34353713",
      "vnfInstanceName": "test-instance-13",
      "vnfInstanceDescription": "test instance 13",
      "vnfdId": "3435313",
      "vnfProvider": "Ericsson",
      "vnfProductName": "vEPG",
      "vnfSoftwareVersion": "1.23,1",
      "vnfdVersion": "2.3",
      "vnfPkgId": "d3def1ce-4cf4-477c-aab3-21cb04e6a3813",
      "clusterName": "dummy",
      "namespace": "default",
      "addedToOss": false,
      "instantiationState": "INSTANTIATED",
      "instantiateOssTopology": {
        "snmpSecurityLevel": {
          "defaultValue": "AUTH_PRIV",
          "type": "string",
          "required": "false"
        },
        "subNetworks": {
          "defaultValue": "SubNetwork=CL,SubNetwork=COMS",
          "type": "string",
          "required": "false"
        },
        "networkElementPassword": {
          "defaultValue": "my-password",
          "type": "string",
          "required": "true"
        },
        "fmAlarmSupervision": {
          "defaultValue": "true",
          "type": "boolean",
          "required": "false"
        },
        "snmpSecurityName": {
          "defaultValue": "sec-name",
          "type": "string",
          "required": "false"
        },
        "networkElementVersion": {
          "defaultValue": "2",
          "type": "string",
          "required": "false"
        },
        "nodeIpAddress": {
          "defaultValue": "10.210.174.58",
          "type": "string",
          "required": "true"
        },
        "snmpAuthProtocol": {
          "defaultValue": "MD5",
          "type": "string",
          "required": "false"
        },
        "transportProtocol": {
          "defaultValue": "SSH",
          "type": "string",
          "required": "false"
        },
        "pmFunction": {
          "defaultValue": "false",
          "type": "boolean",
          "required": "false"
        },
        "cmNodeHeartbeatSupervision": {
          "defaultValue": "true",
          "type": "boolean",
          "required": "false"
        },
        "snmpVersion": {
          "defaultValue": "2",
          "type": "string",
          "required": "false"
        },
        "snmpAuthPassword": {
          "defaultValue": "my-pass",
          "type": "string",
          "required": "true"
        },
        "networkElementUsername": {
          "defaultValue": "my-user",
          "type": "string",
          "required": "true"
        },
        "networkElementType": {
          "defaultValue": "UDM-AUSF",
          "type": "string",
          "required": "true"
        },
        "communityString": {
          "defaultValue": "enm-public",
          "type": "string",
          "required": "true"
        },
        "snmpPrivacyPassword": {
          "defaultValue": "my-pass",
          "type": "string",
          "required": "true"
        },
        "netConfPort": {
          "defaultValue": "830",
          "type": "string",
          "required": "true"
        },
        "snmpPort": {
          "defaultValue": "161",
          "type": "string",
          "required": "false"
        },
        "snmpPrivProtocol": {
          "defaultValue": "AES128",
          "type": "string",
          "required": "false"
        }
      },
      "instantiatedVnfInfo": null,
      "scalingInfo": null,
      "lcmOperationDetails": [
        {
          "currentLifecycleOperation": true,
          "operationOccurrenceId": "2341241-10",
          "operationState": "COMPLETED",
          "stateEnteredTime": "2021-12-17 18:47:52.69",
          "startTime": "2021-12-17 18:47:52.69",
          "grantId": null,
          "lifecycleOperationType": "UPGRADE",
          "automaticInvocation": false,
          "operationParams": null,
          "cancelPending": false,
          "cancelMode": null,
          "error": null,
          "vnfProductName": "vEPG",
          "vnfSoftwareVersion": "1.23,1",
          "username": "Kale67"
        }
      ],
      "downgradeSupported": false,
      "healSupported": true,
      "lastStateChanged": "2021-12-17 18:47:52.69",
      "lastLifecycleOperation": {
        "currentLifecycleOperation": true,
        "operationOccurrenceId": "2341241-10",
        "operationState": "COMPLETED",
        "stateEnteredTime": "2021-12-17 18:47:52.69",
        "startTime": "2021-12-17 18:47:52.69",
        "grantId": null,
        "lifecycleOperationType": "UPGRADE",
        "automaticInvocation": false,
        "operationParams": null,
        "cancelPending": false,
        "cancelMode": null,
        "error": null,
        "vnfProductName": "vEPG",
        "vnfSoftwareVersion": "1.23,1"
      }
    },
    {
      "instanceId": "34353712",
      "vnfInstanceName": "test-instance-12",
      "vnfInstanceDescription": "test instance 12",
      "vnfdId": "3435312",
      "vnfProvider": "Ericsson",
      "vnfProductName": "vEPG",
      "vnfSoftwareVersion": "1.23,1",
      "vnfdVersion": "2.3",
      "vnfPkgId": "d3def1ce-4cf4-477c-aab3-21cb04e6a389",
      "clusterName": "dummy",
      "namespace": "default",
      "addedToOss": false,
      "instantiationState": "INSTANTIATED",
      "instantiateOssTopology": {
        "snmpSecurityLevel": {
          "defaultValue": "AUTH_PRIV",
          "type": "string",
          "required": "false"
        },
        "subNetworks": {
          "defaultValue": "SubNetwork=CL,SubNetwork=COMS",
          "type": "string",
          "required": "false"
        },
        "networkElementPassword": {
          "defaultValue": "my-password",
          "type": "string",
          "required": "true"
        },
        "fmAlarmSupervision": {
          "defaultValue": "true",
          "type": "boolean",
          "required": "false"
        },
        "snmpSecurityName": {
          "defaultValue": "sec-name",
          "type": "string",
          "required": "false"
        },
        "networkElementVersion": {
          "defaultValue": "2",
          "type": "string",
          "required": "false"
        },
        "nodeIpAddress": {
          "defaultValue": "10.210.174.58",
          "type": "string",
          "required": "true"
        },
        "snmpAuthProtocol": {
          "defaultValue": "MD5",
          "type": "string",
          "required": "false"
        },
        "transportProtocol": {
          "defaultValue": "SSH",
          "type": "string",
          "required": "false"
        },
        "pmFunction": {
          "defaultValue": "false",
          "type": "boolean",
          "required": "false"
        },
        "cmNodeHeartbeatSupervision": {
          "defaultValue": "true",
          "type": "boolean",
          "required": "false"
        },
        "snmpVersion": {
          "defaultValue": "2",
          "type": "string",
          "required": "false"
        },
        "snmpAuthPassword": {
          "defaultValue": "my-pass",
          "type": "string",
          "required": "true"
        },
        "networkElementUsername": {
          "defaultValue": "my-user",
          "type": "string",
          "required": "true"
        },
        "networkElementType": {
          "defaultValue": "UDM-AUSF",
          "type": "string",
          "required": "true"
        },
        "communityString": {
          "defaultValue": "enm-public",
          "type": "string",
          "required": "true"
        },
        "snmpPrivacyPassword": {
          "defaultValue": "my-pass",
          "type": "string",
          "required": "true"
        },
        "netConfPort": {
          "defaultValue": "830",
          "type": "string",
          "required": "true"
        },
        "snmpPort": {
          "defaultValue": "161",
          "type": "string",
          "required": "false"
        },
        "snmpPrivProtocol": {
          "defaultValue": "AES128",
          "type": "string",
          "required": "false"
        }
      },
      "instantiatedVnfInfo": null,
      "scalingInfo": null,
      "lcmOperationDetails": [
        {
          "currentLifecycleOperation": true,
          "operationOccurrenceId": "2341241-9",
          "operationState": "COMPLETED",
          "stateEnteredTime": "2021-11-17 18:47:52.69",
          "startTime": "2021-11-17 18:47:52.69",
          "grantId": null,
          "lifecycleOperationType": "SCALE",
          "automaticInvocation": false,
          "operationParams": null,
          "cancelPending": false,
          "cancelMode": null,
          "error": null,
          "vnfProductName": "vEPG",
          "vnfSoftwareVersion": "1.23,1",
          "username": "Kale67"
        }
      ],
      "downgradeSupported": false,
      "healSupported": true,
      "lastStateChanged": "2021-11-17 18:47:52.69",
      "lastLifecycleOperation": {
        "currentLifecycleOperation": true,
        "operationOccurrenceId": "2341241-9",
        "operationState": "COMPLETED",
        "stateEnteredTime": "2021-11-17 18:47:52.69",
        "startTime": "2021-11-17 18:47:52.69",
        "grantId": null,
        "lifecycleOperationType": "SCALE",
        "automaticInvocation": false,
        "operationParams": null,
        "cancelPending": false,
        "cancelMode": null,
        "error": null,
        "vnfProductName": "vEPG",
        "vnfSoftwareVersion": "1.23,1"
      }
    },
    {
      "instanceId": "34353711",
      "vnfInstanceName": "test-instance-11",
      "vnfInstanceDescription": "test instance 11",
      "vnfdId": "343537",
      "vnfProvider": "Ericsson",
      "vnfProductName": "vEPG",
      "vnfSoftwareVersion": "1.23,1",
      "vnfdVersion": "2.3",
      "vnfPkgId": "d3def1ce-4cf4-477c-aab3-21cb04e6a385",
      "clusterName": "dummy",
      "namespace": "default",
      "addedToOss": false,
      "instantiationState": "INSTANTIATED",
      "instantiateOssTopology": {
        "snmpSecurityLevel": {
          "defaultValue": "AUTH_PRIV",
          "type": "string",
          "required": "false"
        },
        "subNetworks": {
          "defaultValue": "SubNetwork=CL,SubNetwork=COMS",
          "type": "string",
          "required": "false"
        },
        "networkElementPassword": {
          "defaultValue": "my-password",
          "type": "string",
          "required": "true"
        },
        "fmAlarmSupervision": {
          "defaultValue": "true",
          "type": "boolean",
          "required": "false"
        },
        "snmpSecurityName": {
          "defaultValue": "sec-name",
          "type": "string",
          "required": "false"
        },
        "networkElementVersion": {
          "defaultValue": "2",
          "type": "string",
          "required": "false"
        },
        "nodeIpAddress": {
          "defaultValue": "10.210.174.58",
          "type": "string",
          "required": "true"
        },
        "snmpAuthProtocol": {
          "defaultValue": "MD5",
          "type": "string",
          "required": "false"
        },
        "transportProtocol": {
          "defaultValue": "SSH",
          "type": "string",
          "required": "false"
        },
        "pmFunction": {
          "defaultValue": "false",
          "type": "boolean",
          "required": "false"
        },
        "cmNodeHeartbeatSupervision": {
          "defaultValue": "true",
          "type": "boolean",
          "required": "false"
        },
        "snmpVersion": {
          "defaultValue": "2",
          "type": "string",
          "required": "false"
        },
        "snmpAuthPassword": {
          "defaultValue": "my-pass",
          "type": "string",
          "required": "true"
        },
        "networkElementUsername": {
          "defaultValue": "my-user",
          "type": "string",
          "required": "true"
        },
        "networkElementType": {
          "defaultValue": "UDM-AUSF",
          "type": "string",
          "required": "true"
        },
        "communityString": {
          "defaultValue": "enm-public",
          "type": "string",
          "required": "true"
        },
        "snmpPrivacyPassword": {
          "defaultValue": "my-pass",
          "type": "string",
          "required": "true"
        },
        "netConfPort": {
          "defaultValue": "830",
          "type": "string",
          "required": "true"
        },
        "snmpPort": {
          "defaultValue": "161",
          "type": "string",
          "required": "false"
        },
        "snmpPrivProtocol": {
          "defaultValue": "AES128",
          "type": "string",
          "required": "false"
        }
      },
      "instantiatedVnfInfo": null,
      "scalingInfo": null,
      "lcmOperationDetails": [
        {
          "currentLifecycleOperation": true,
          "operationOccurrenceId": "2341241-2",
          "operationState": "COMPLETED",
          "stateEnteredTime": "2021-10-17 18:47:52.69",
          "startTime": "2021-10-17 18:47:52.69",
          "grantId": null,
          "lifecycleOperationType": "CHANGE_VNFPKG",
          "automaticInvocation": false,
          "operationParams": null,
          "cancelPending": false,
          "cancelMode": null,
          "error": {
            "type": "someType",
            "title": "someTitle",
            "status": 404,
            "detail": "some error happened",
            "instance": ""
          },
          "vnfProductName": "vEPG",
          "vnfSoftwareVersion": "1.23,1",
          "username": "Kale67"
        },
        {
          "currentLifecycleOperation": false,
          "operationOccurrenceId": "5363749",
          "operationState": "COMPLETED",
          "stateEnteredTime": "2021-11-17 18:47:52.69",
          "startTime": "2021-11-17 18:47:52.69",
          "grantId": null,
          "lifecycleOperationType": "INSTANTIATE",
          "automaticInvocation": false,
          "operationParams": null,
          "cancelPending": false,
          "cancelMode": null,
          "error": null,
          "vnfProductName": "vEPG",
          "vnfSoftwareVersion": "1.23,1",
          "username": "Kale67"
        }
      ],
      "downgradeSupported": false,
      "healSupported": true,
      "lastStateChanged": "2012-09-17 18:47:52.69",
      "lastLifecycleOperation": {
        "currentLifecycleOperation": true,
        "operationOccurrenceId": "2341241-2",
        "operationState": "COMPLETED",
        "stateEnteredTime": "2021-10-17 18:47:52.69",
        "startTime": "2021-10-17 18:47:52.69",
        "grantId": null,
        "lifecycleOperationType": "CHANGE_VNFPKG",
        "automaticInvocation": false,
        "operationParams": null,
        "cancelPending": false,
        "cancelMode": null,
        "error": {
          "type": "someType",
          "title": "someTitle",
          "status": 404,
          "detail": "some error happened",
          "instance": ""
        },
        "vnfProductName": "vEPG",
        "vnfSoftwareVersion": "1.23,1"
      }
    },
    {
      "instanceId": "34353710",
      "vnfInstanceName": "test-instance-10",
      "vnfInstanceDescription": "test instance 10",
      "vnfdId": "3435310",
      "vnfProvider": "Ericsson",
      "vnfProductName": "vEPG",
      "vnfSoftwareVersion": "1.23,1",
      "vnfdVersion": "2.3",
      "vnfPkgId": "d3def1ce-4cf4-477c-aab3-21cb04e6a389",
      "clusterName": "dummy",
      "namespace": "default",
      "addedToOss": false,
      "instantiationState": "INSTANTIATED",
      "instantiateOssTopology": {
        "snmpSecurityLevel": {
          "defaultValue": "AUTH_PRIV",
          "type": "string",
          "required": "false"
        },
        "subNetworks": {
          "defaultValue": "SubNetwork=CL,SubNetwork=COMS",
          "type": "string",
          "required": "false"
        },
        "networkElementPassword": {
          "defaultValue": "my-password",
          "type": "string",
          "required": "true"
        },
        "fmAlarmSupervision": {
          "defaultValue": "true",
          "type": "boolean",
          "required": "false"
        },
        "snmpSecurityName": {
          "defaultValue": "sec-name",
          "type": "string",
          "required": "false"
        },
        "networkElementVersion": {
          "defaultValue": "2",
          "type": "string",
          "required": "false"
        },
        "nodeIpAddress": {
          "defaultValue": "10.210.174.58",
          "type": "string",
          "required": "true"
        },
        "snmpAuthProtocol": {
          "defaultValue": "MD5",
          "type": "string",
          "required": "false"
        },
        "transportProtocol": {
          "defaultValue": "SSH",
          "type": "string",
          "required": "false"
        },
        "pmFunction": {
          "defaultValue": "false",
          "type": "boolean",
          "required": "false"
        },
        "cmNodeHeartbeatSupervision": {
          "defaultValue": "true",
          "type": "boolean",
          "required": "false"
        },
        "snmpVersion": {
          "defaultValue": "2",
          "type": "string",
          "required": "false"
        },
        "snmpAuthPassword": {
          "defaultValue": "my-pass",
          "type": "string",
          "required": "true"
        },
        "networkElementUsername": {
          "defaultValue": "my-user",
          "type": "string",
          "required": "true"
        },
        "networkElementType": {
          "defaultValue": "UDM-AUSF",
          "type": "string",
          "required": "true"
        },
        "communityString": {
          "defaultValue": "enm-public",
          "type": "string",
          "required": "true"
        },
        "snmpPrivacyPassword": {
          "defaultValue": "my-pass",
          "type": "string",
          "required": "true"
        },
        "netConfPort": {
          "defaultValue": "830",
          "type": "string",
          "required": "true"
        },
        "snmpPort": {
          "defaultValue": "161",
          "type": "string",
          "required": "false"
        },
        "snmpPrivProtocol": {
          "defaultValue": "AES128",
          "type": "string",
          "required": "false"
        }
      },
      "instantiatedVnfInfo": null,
      "scalingInfo": null,
      "lcmOperationDetails": [
        {
          "currentLifecycleOperation": true,
          "operationOccurrenceId": "2341241-10",
          "operationState": "COMPLETED",
          "stateEnteredTime": "2021-09-17 18:47:52.69",
          "startTime": "2021-09-17 18:47:52.69",
          "grantId": null,
          "lifecycleOperationType": "UPGRADE",
          "automaticInvocation": false,
          "operationParams": null,
          "cancelPending": false,
          "cancelMode": null,
          "error": null,
          "vnfProductName": "vEPG",
          "vnfSoftwareVersion": "1.23,1",
          "username": "Kale67"
        }
      ],
      "downgradeSupported": false,
      "healSupported": true,
      "lastStateChanged": "2021-09-17 18:47:52.69",
      "lastLifecycleOperation": {
        "currentLifecycleOperation": true,
        "operationOccurrenceId": "2341241-10",
        "operationState": "COMPLETED",
        "stateEnteredTime": "2021-09-17 18:47:52.69",
        "startTime": "2021-09-17 18:47:52.69",
        "grantId": null,
        "lifecycleOperationType": "UPGRADE",
        "automaticInvocation": false,
        "operationParams": null,
        "cancelPending": false,
        "cancelMode": null,
        "error": null,
        "vnfProductName": "vEPG",
        "vnfSoftwareVersion": "1.23,1"
      }
    }
  ]
}