{
  "_links": {
    "first": {
      "href": "http://localhost/api/v1/operations?sort=vnfProductName,asc&page=1"
    },
    "prev": null,
    "self": {
      "href": "http://localhost/api/v1/operations?sort=vnfProductName,asc&page=1"
    },
    "next": {
      "href": "http://localhost/api/v1/operations?sort=vnfProductName,asc&page=2"
    },
    "last": {
      "href": "http://localhost/api/v1/operations?sort=vnfProductName,asc&page=2"
    }
  },
  "page": {
    "number": 1,
    "size": 15,
    "totalPages": 2,
    "totalElements": 18
  },
  "items": [
    {
      "currentLifecycleOperation": null,
      "operationOccurrenceId": "99223f1c-bcb9-474c-9cb6-1",
      "operationState": "COMPLETED",
      "stateEnteredTime": "2021-05-30T10:36:37.118644",
      "startTime": "2021-05-30T10:36:19.852381",
      "grantId": null,
      "lifecycleOperationType": "INSTANTIATE",
      "automaticInvocation": null,
      "operationParams": null,
      "cancelPending": null,
      "cancelMode": null,
      "error": null,
      "vnfProductName": "Array",
      "vnfSoftwareVersion": "1.0.2",
      "clusterName": "cluster-1",
      "namespace": "default",
      "vnfInstanceId": "4d3a4b72-e724-4832-83c5-1",
      "vnfInstanceName": "instance-1",
      "username": "Kale67"
    },
    {
      "currentLifecycleOperation": null,
      "operationOccurrenceId": "99223f1c-bcb9-474c-9cb6-2",
      "operationState": "COMPLETED",
      "stateEnteredTime": "2021-05-30T10:36:35.765829",
      "startTime": "2021-05-30T10:36:18.408308",
      "grantId": null,
      "lifecycleOperationType": "INSTANTIATE",
      "automaticInvocation": null,
      "operationParams": null,
      "cancelPending": null,
      "cancelMode": null,
      "error": null,
      "vnfProductName": "Array",
      "vnfSoftwareVersion": "1.0.2",
      "clusterName": "cluster-2",
      "namespace": "default",
      "vnfInstanceId": "4d3a4b72-e724-4832-83c5-2",
      "vnfInstanceName": "instance-2",
      "username": "Vaughn.Donnelly48"
    },
    {
      "currentLifecycleOperation": null,
      "operationOccurrenceId": "99223f1c-bcb9-474c-9cb6-3",
      "operationState": "COMPLETED",
      "stateEnteredTime": "2021-05-30T15:23:13.779081",
      "startTime": "2021-05-30T15:23:03.536587",
      "grantId": null,
      "lifecycleOperationType": "INSTANTIATE",
      "automaticInvocation": null,
      "operationParams": null,
      "cancelPending": null,
      "cancelMode": null,
      "error": null,
      "vnfProductName": "Array",
      "vnfSoftwareVersion": "1.0.2",
      "clusterName": "cluster-3",
      "namespace": "default",
      "vnfInstanceId": "4d3a4b72-e724-4832-83c5-3",
      "vnfInstanceName": "instance-3",
      "username": "Kale67"
    },
    {
      "currentLifecycleOperation": null,
      "operationOccurrenceId": "99223f1c-bcb9-474c-9cb6-4",
      "operationState": "COMPLETED",
      "stateEnteredTime": "2021-05-30T15:23:13.765188",
      "startTime": "2021-05-30T15:23:02.788565",
      "grantId": null,
      "lifecycleOperationType": "INSTANTIATE",
      "automaticInvocation": null,
      "operationParams": null,
      "cancelPending": null,
      "cancelMode": null,
      "error": null,
      "vnfProductName": "Bro",
      "vnfSoftwareVersion": "1.0.2",
      "clusterName": "cluster-4",
      "namespace": "default",
      "vnfInstanceId": "4d3a4b72-e724-4832-83c5-4",
      "vnfInstanceName": "instance-4",
      "username": "Jettie64"
    },
    {
      "currentLifecycleOperation": null,
      "operationOccurrenceId": "99223f1c-bcb9-474c-9cb6-5",
      "operationState": "COMPLETED",
      "stateEnteredTime": "2021-05-30T15:23:13.741055",
      "startTime": "2021-05-30T15:23:02.788565",
      "grantId": null,
      "lifecycleOperationType": "INSTANTIATE",
      "automaticInvocation": null,
      "operationParams": null,
      "cancelPending": null,
      "cancelMode": null,
      "error": null,
      "vnfProductName": "Bro",
      "vnfSoftwareVersion": "1.0.2",
      "clusterName": "cluster-5",
      "namespace": "default",
      "vnfInstanceId": "4d3a4b72-e724-4832-83c5-5",
      "vnfInstanceName": "instance-5",
      "username": "Jettie65"
    },
    {
      "currentLifecycleOperation": null,
      "operationOccurrenceId": "99223f1c-bcb9-474c-9cb6-6",
      "operationState": "COMPLETED",
      "stateEnteredTime": "2021-05-30T15:23:13.713244",
      "startTime": "2021-05-30T15:23:02.788565",
      "grantId": null,
      "lifecycleOperationType": "INSTANTIATE",
      "automaticInvocation": null,
      "operationParams": null,
      "cancelPending": null,
      "cancelMode": null,
      "error": null,
      "vnfProductName": "Bro",
      "vnfSoftwareVersion": "1.0.2",
      "clusterName": "cluster-6",
      "namespace": "default",
      "vnfInstanceId": "4d3a4b72-e724-4832-83c5-6",
      "vnfInstanceName": "instance-6",
      "username": "Bradford_Emrd16"
    },
    {
      "currentLifecycleOperation": null,
      "operationOccurrenceId": "99223f1c-bcb9-474c-9cb6-7",
      "operationState": "COMPLETED",
      "stateEnteredTime": "2021-05-30T15:23:13.683413",
      "startTime": "2021-05-30T15:23:02.788565",
      "grantId": null,
      "lifecycleOperationType": "INSTANTIATE",
      "automaticInvocation": null,
      "operationParams": null,
      "cancelPending": null,
      "cancelMode": null,
      "error": null,
      "vnfProductName": "Bro",
      "vnfSoftwareVersion": "1.0.2",
      "clusterName": "cluster-7",
      "namespace": "default",
      "vnfInstanceId": "4d3a4b72-e724-4832-83c5-7",
      "vnfInstanceName": "instance-7",
      "username": " "
    },
    {
      "currentLifecycleOperation": null,
      "operationOccurrenceId": "99223f1c-bcb9-474c-9cb6-8",
      "operationState": "FAILED_TEMP",
      "stateEnteredTime": "2021-05-30T15:23:13.612024",
      "startTime": "2021-05-30T15:23:02.108015",
      "grantId": null,
      "lifecycleOperationType": "CHANGE_VNFPKG",
      "automaticInvocation": null,
      "operationParams": null,
      "cancelPending": null,
      "cancelMode": null,
      "error": null,
      "vnfProductName": "Bro",
      "vnfSoftwareVersion": "1.0.2",
      "clusterName": "cluster-8",
      "namespace": "default",
      "vnfInstanceId": "4d3a4b72-e724-4832-83c5-8",
      "vnfInstanceName": "instance-8",
      "username": " "
    },
    {
      "currentLifecycleOperation": null,
      "operationOccurrenceId": "99223f1c-bcb9-474c-9cb6-9",
      "operationState": "COMPLETED",
      "stateEnteredTime": "2021-05-30T15:23:13.598237",
      "startTime": "2021-05-30T15:23:02.108015",
      "grantId": null,
      "lifecycleOperationType": "INSTANTIATE",
      "automaticInvocation": null,
      "operationParams": null,
      "cancelPending": null,
      "cancelMode": null,
      "error": null,
      "vnfProductName": "Bro",
      "vnfSoftwareVersion": "1.0.2",
      "clusterName": "cluster-9",
      "namespace": "default",
      "vnfInstanceId": "4d3a4b72-e724-4832-83c5-9",
      "vnfInstanceName": "instance-9",
      "username": "Jack.L1"
    },
    {
      "currentLifecycleOperation": null,
      "operationOccurrenceId": "99223f1c-bcb9-474c-9cb6-10",
      "operationState": "COMPLETED",
      "stateEnteredTime": "2021-05-30T15:23:13.546540",
      "startTime": "2021-05-30T15:23:01.327848",
      "grantId": null,
      "lifecycleOperationType": "INSTANTIATE",
      "automaticInvocation": null,
      "operationParams": null,
      "cancelPending": null,
      "cancelMode": null,
      "error": null,
      "vnfProductName": "Bro",
      "vnfSoftwareVersion": "1.0.2",
      "clusterName": "cluster-10",
      "namespace": "default",
      "vnfInstanceId": "4d3a4b72-e724-4832-83c5-10",
      "vnfInstanceName": "instance-10",
      "username": "Jack.L2"
    },
    {
      "currentLifecycleOperation": null,
      "operationOccurrenceId": "99223f1c-bcb9-474c-9cb6-11",
      "operationState": "COMPLETED",
      "stateEnteredTime": "2021-05-30T15:23:03.623282",
      "startTime": "2021-05-30T15:23:03.623282",
      "grantId": null,
      "lifecycleOperationType": "INSTANTIATE",
      "automaticInvocation": null,
      "operationParams": null,
      "cancelPending": null,
      "cancelMode": null,
      "error": null,
      "vnfProductName": "Bro",
      "vnfSoftwareVersion": "1.0.2",
      "clusterName": "cluster-11",
      "namespace": "default",
      "vnfInstanceId": "4d3a4b72-e724-4832-83c5-11",
      "vnfInstanceName": "instance-11",
      "username": "Anka.R"
    },
    {
      "currentLifecycleOperation": null,
      "operationOccurrenceId": "99223f1c-bcb9-474c-9cb6-12",
      "operationState": "COMPLETED",
      "stateEnteredTime": "2021-05-30T15:23:03.614977",
      "startTime": "2021-05-30T15:23:03.614977",
      "grantId": null,
      "lifecycleOperationType": "INSTANTIATE",
      "automaticInvocation": null,
      "operationParams": null,
      "cancelPending": null,
      "cancelMode": null,
      "error": null,
      "vnfProductName": "Bro",
      "vnfSoftwareVersion": "1.0.2",
      "clusterName": "cluster-12",
      "namespace": "default",
      "vnfInstanceId": "4d3a4b72-e724-4832-83c5-12",
      "vnfInstanceName": "instance-12",
      "username": "Anka.R"
    },
    {
      "currentLifecycleOperation": null,
      "operationOccurrenceId": "99223f1c-bcb9-474c-9cb6-13",
      "operationState": "COMPLETED",
      "stateEnteredTime": "2021-05-30T15:23:03.614977",
      "startTime": "2021-05-30T15:23:03.614977",
      "grantId": null,
      "lifecycleOperationType": "INSTANTIATE",
      "automaticInvocation": null,
      "operationParams": null,
      "cancelPending": null,
      "cancelMode": null,
      "error": null,
      "vnfProductName": "Citrix",
      "vnfSoftwareVersion": "1.0.2",
      "clusterName": "cluster-13",
      "namespace": "default",
      "vnfInstanceId": "4d3a4b72-e724-4832-83c5-13",
      "vnfInstanceName": "instance-13",
      "username": " "
    },
    {
      "currentLifecycleOperation": null,
      "operationOccurrenceId": "99223f1c-bcb9-474c-9cb6-14",
      "operationState": "COMPLETED",
      "stateEnteredTime": "2021-05-30T15:23:03.600980",
      "startTime": "2021-05-30T15:23:03.600980",
      "grantId": null,
      "lifecycleOperationType": "INSTANTIATE",
      "automaticInvocation": null,
      "operationParams": null,
      "cancelPending": null,
      "cancelMode": null,
      "error": null,
      "vnfProductName": "Citrix",
      "vnfSoftwareVersion": "1.0.2",
      "clusterName": "cluster-14",
      "namespace": "default",
      "vnfInstanceId": "4d3a4b72-e724-4832-83c5-14",
      "vnfInstanceName": "instance-14",
      "username": "jack.black"
    },
    {
      "currentLifecycleOperation": null,
      "operationOccurrenceId": "99223f1c-bcb9-474c-9cb6-15",
      "operationState": "COMPLETED",
      "stateEnteredTime": "2021-05-30T15:23:03.593226",
      "startTime": "2021-05-30T15:23:03.593226",
      "grantId": null,
      "lifecycleOperationType": "INSTANTIATE",
      "automaticInvocation": null,
      "operationParams": null,
      "cancelPending": null,
      "cancelMode": null,
      "error": null,
      "vnfProductName": "Citrix",
      "vnfSoftwareVersion": "1.0.2",
      "clusterName": "cluster-15",
      "namespace": "default",
      "vnfInstanceId": "4d3a4b72-e724-4832-83c5-15",
      "vnfInstanceName": "instance-15",
      "username": " "
    }
  ]
}
